^C:\PROGRAMMING\WIN32SDKCOMDOTNETWINRT\COM\AGGREGATION\AGGREGATIONOUTERCOMPONENTWITHREGFILE\AGGREGATIONOUTERCOMPONENTWITHREGFILE\AGGREGATIONOUTERCOMPONENTWITHREGFILE.CPP
C:\PROGRAMMING\WIN32SDKCOMDOTNETWINRT\COM\AGGREGATION\AGGREGATIONOUTERCOMPONENTWITHREGFILE\AGGREGATIONOUTERCOMPONENTWITHREGFILE\X64\DEBUG\VC142.PDB
C:\PROGRAMMING\WIN32SDKCOMDOTNETWINRT\COM\AGGREGATION\AGGREGATIONOUTERCOMPONENTWITHREGFILE\AGGREGATIONOUTERCOMPONENTWITHREGFILE\X64\DEBUG\VC142.IDB
C:\PROGRAMMING\WIN32SDKCOMDOTNETWINRT\COM\AGGREGATION\AGGREGATIONOUTERCOMPONENTWITHREGFILE\AGGREGATIONOUTERCOMPONENTWITHREGFILE\X64\DEBUG\AGGREGATIONOUTERCOMPONENTWITHREGFILE.OBJ
