^C:\PROGRAMMING\WIN32SDKCOMDOTNETWINRT\COM\AGGREGATION\AGGREGATIONOUTERCOMPONENTWITHREGFILE\AGGREGATIONOUTERCOMPONENTWITHREGFILE\X64\DEBUG\AGGREGATIONOUTERCOMPONENTWITHREGFILE.OBJ
C:\PROGRAMMING\WIN32SDKCOMDOTNETWINRT\COM\AGGREGATION\AGGREGATIONOUTERCOMPONENTWITHREGFILE\X64\DEBUG\AGGREGATIONOUTERCOMPONENTWITHREGFILE.ILK
C:\PROGRAMMING\WIN32SDKCOMDOTNETWINRT\COM\AGGREGATION\AGGREGATIONOUTERCOMPONENTWITHREGFILE\X64\DEBUG\AGGREGATIONOUTERCOMPONENTWITHREGFILE.DLL
C:\PROGRAMMING\WIN32SDKCOMDOTNETWINRT\COM\AGGREGATION\AGGREGATIONOUTERCOMPONENTWITHREGFILE\X64\DEBUG\AGGREGATIONOUTERCOMPONENTWITHREGFILE.PDB
