^C:\PROGRAMMING\WIN32SDKCOMDOTNETWINRT\COM\CONTAINMENT\CONTAINMENTINNERCOMPONENTWITHREGFILE\CONTAINMENTINNERCOMPONENTWITHREGFILE\CONTAINMENTINNERCOMPONENTWITHREGFILE.CPP
C:\PROGRAMMING\WIN32SDKCOMDOTNETWINRT\COM\CONTAINMENT\CONTAINMENTINNERCOMPONENTWITHREGFILE\CONTAINMENTINNERCOMPONENTWITHREGFILE\X64\DEBUG\VC142.PDB
C:\PROGRAMMING\WIN32SDKCOMDOTNETWINRT\COM\CONTAINMENT\CONTAINMENTINNERCOMPONENTWITHREGFILE\CONTAINMENTINNERCOMPONENTWITHREGFILE\X64\DEBUG\VC142.IDB
C:\PROGRAMMING\WIN32SDKCOMDOTNETWINRT\COM\CONTAINMENT\CONTAINMENTINNERCOMPONENTWITHREGFILE\CONTAINMENTINNERCOMPONENTWITHREGFILE\X64\DEBUG\CONTAINMENTINNERCOMPONENTWITHREGFILE.OBJ
