^C:\Users\RohitMuneshwar\Documents\IBM\programming\win32sdkcomdotnetwinrt\win32\ide\MyWindow\MyWindow\MyWindow.vcxproj
C:\Users\RohitMuneshwar\Documents\IBM\programming\win32sdkcomdotnetwinrt\win32\ide\MyWindow\Release\MyWindow.ipdb
C:\Users\RohitMuneshwar\Documents\IBM\programming\win32sdkcomdotnetwinrt\win32\ide\MyWindow\Release\MyWindow.iobj
