^C:\USERS\ROHITMUNESHWAR\DOCUMENTS\IBM\PROGRAMMING\WIN32SDKCOMDOTNETWINRT\DLL_CLIENT\DEF_IMPLICIT\DEFIMPLICITCLIENT\DEFIMPLICITCLIENT\DEBUG\DEFIMPLICITCLIENT.OBJ|C:\USERS\ROHITMUNESHWAR\DOCUMENTS\IBM\PROGRAMMING\WIN32SDKCOMDOTNETWINRT\DLL_CLIENT\DEF_IMPLICIT\DEFIMPLICITCLIENT\DEFIMPLICITCLIENT\DEBUG\RESOURCES.RES
C:\USERS\ROHITMUNESHWAR\DOCUMENTS\IBM\PROGRAMMING\WIN32SDKCOMDOTNETWINRT\DLL_CLIENT\DEF_IMPLICIT\DEFIMPLICITCLIENT\DEBUG\DEFIMPLICITCLIENT.EXE
C:\USERS\ROHITMUNESHWAR\DOCUMENTS\IBM\PROGRAMMING\WIN32SDKCOMDOTNETWINRT\DLL_CLIENT\DEF_IMPLICIT\DEFIMPLICITCLIENT\DEBUG\DEFIMPLICITCLIENT.ILK
C:\USERS\ROHITMUNESHWAR\DOCUMENTS\IBM\PROGRAMMING\WIN32SDKCOMDOTNETWINRT\DLL_CLIENT\DEF_IMPLICIT\DEFIMPLICITCLIENT\DEBUG\DEFIMPLICITCLIENT.PDB
