^C:\PROGRAMMING\WIN32SDKCOMDOTNETWINRT\COM\AUTOMATION\AUTOMATIONSERVER\AUTOMATIONSERVER\AUTOMATIONSERVER.CPP
C:\PROGRAMMING\WIN32SDKCOMDOTNETWINRT\COM\AUTOMATION\AUTOMATIONSERVER\AUTOMATIONSERVER\X64\DEBUG\VC142.PDB
C:\PROGRAMMING\WIN32SDKCOMDOTNETWINRT\COM\AUTOMATION\AUTOMATIONSERVER\AUTOMATIONSERVER\X64\DEBUG\VC142.IDB
C:\PROGRAMMING\WIN32SDKCOMDOTNETWINRT\COM\AUTOMATION\AUTOMATIONSERVER\AUTOMATIONSERVER\X64\DEBUG\AUTOMATIONSERVER.OBJ
