﻿  HelloWorld.cpp
C:\Users\RohitMuneshwar\Documents\IBM\programming\win32sdkcomdotnetwinrt\win32\ide\HelloWorld\HelloWorld\HelloWorld.cpp(281,3): warning C4065:  switch statement contains 'default' but no 'case' labels
  HelloWorld.vcxproj -> C:\Users\RohitMuneshwar\Documents\IBM\programming\win32sdkcomdotnetwinrt\win32\ide\HelloWorld\Debug\HelloWorld.exe
