^C:\Users\RohitMuneshwar\Documents\IBM\programming\win32sdkcomdotnetwinrt\dll\declspec\MyMath\MyMath\MyMath.vcxproj
C:\Users\RohitMuneshwar\Documents\IBM\programming\win32sdkcomdotnetwinrt\dll\declspec\MyMath\Debug\MyMath.lib
C:\Users\RohitMuneshwar\Documents\IBM\programming\win32sdkcomdotnetwinrt\dll\declspec\MyMath\Debug\MyMath.exp
