^C:\USERS\ROHITMUNESHWAR\DOCUMENTS\IBM\PROGRAMMING\WIN32SDKCOMDOTNETWINRT\WIN32\IDE\WINDOWWITHMESSAGEBOX\WINDOWWITHMESSAGEBOX\DEBUG\WINDOWWITHMESSAGEBOX.OBJ
C:\USERS\ROHITMUNESHWAR\DOCUMENTS\IBM\PROGRAMMING\WIN32SDKCOMDOTNETWINRT\WIN32\IDE\WINDOWWITHMESSAGEBOX\DEBUG\WINDOWWITHMESSAGEBOX.EXE
C:\USERS\ROHITMUNESHWAR\DOCUMENTS\IBM\PROGRAMMING\WIN32SDKCOMDOTNETWINRT\WIN32\IDE\WINDOWWITHMESSAGEBOX\DEBUG\WINDOWWITHMESSAGEBOX.ILK
C:\USERS\ROHITMUNESHWAR\DOCUMENTS\IBM\PROGRAMMING\WIN32SDKCOMDOTNETWINRT\WIN32\IDE\WINDOWWITHMESSAGEBOX\DEBUG\WINDOWWITHMESSAGEBOX.PDB
