^C:\PROGRAMMING\WIN32SDKCOMDOTNETWINRT\COM\CLASSFACTORY\SERVER\CLASSFACTORYDLLSERVERWITHREGFILE\CLASSFACTORYDLLSERVERWITHREGFILE\DEBUG\CLASSFACTORYDLLSERVERWITHREGFILE.OBJ
C:\PROGRAMMING\WIN32SDKCOMDOTNETWINRT\COM\CLASSFACTORY\SERVER\CLASSFACTORYDLLSERVERWITHREGFILE\DEBUG\CLASSFACTORYDLLSERVERWITHREGFILE.ILK
C:\PROGRAMMING\WIN32SDKCOMDOTNETWINRT\COM\CLASSFACTORY\SERVER\CLASSFACTORYDLLSERVERWITHREGFILE\DEBUG\CLASSFACTORYDLLSERVERWITHREGFILE.DLL
C:\PROGRAMMING\WIN32SDKCOMDOTNETWINRT\COM\CLASSFACTORY\SERVER\CLASSFACTORYDLLSERVERWITHREGFILE\DEBUG\CLASSFACTORYDLLSERVERWITHREGFILE.PDB
