^C:\PROGRAMMING\WIN32SDKCOMDOTNETWINRT\COM\AGGREGATION\CLIENTOFAGGREGATIONWITHREGFILE\CLIENTOFAGGREGATIONWITHREGFILE\CLIENTOFAGGREGATIONWITHREGFILE.CPP
C:\PROGRAMMING\WIN32SDKCOMDOTNETWINRT\COM\AGGREGATION\CLIENTOFAGGREGATIONWITHREGFILE\CLIENTOFAGGREGATIONWITHREGFILE\DEBUG\VC142.PDB
C:\PROGRAMMING\WIN32SDKCOMDOTNETWINRT\COM\AGGREGATION\CLIENTOFAGGREGATIONWITHREGFILE\CLIENTOFAGGREGATIONWITHREGFILE\DEBUG\VC142.IDB
C:\PROGRAMMING\WIN32SDKCOMDOTNETWINRT\COM\AGGREGATION\CLIENTOFAGGREGATIONWITHREGFILE\CLIENTOFAGGREGATIONWITHREGFILE\DEBUG\CLIENTOFAGGREGATIONWITHREGFILE.OBJ
