c:\users\rohitmuneshwar\documents\ibm\programming\win32sdkcomdotnetwinrt\dll_client\declspec_implicit\declimplicitclient\declimplicitclient\debug\vc142.pdb
c:\users\rohitmuneshwar\documents\ibm\programming\win32sdkcomdotnetwinrt\dll_client\declspec_implicit\declimplicitclient\declimplicitclient\debug\vc142.idb
c:\users\rohitmuneshwar\documents\ibm\programming\win32sdkcomdotnetwinrt\dll_client\declspec_implicit\declimplicitclient\declimplicitclient\debug\declimplicitclient.obj
c:\users\rohitmuneshwar\documents\ibm\programming\win32sdkcomdotnetwinrt\dll_client\declspec_implicit\declimplicitclient\debug\declimplicitclient.ilk
c:\users\rohitmuneshwar\documents\ibm\programming\win32sdkcomdotnetwinrt\dll_client\declspec_implicit\declimplicitclient\debug\declimplicitclient.exe
c:\users\rohitmuneshwar\documents\ibm\programming\win32sdkcomdotnetwinrt\dll_client\declspec_implicit\declimplicitclient\debug\declimplicitclient.pdb
c:\users\rohitmuneshwar\documents\ibm\programming\win32sdkcomdotnetwinrt\dll_client\declspec_implicit\declimplicitclient\declimplicitclient\debug\resources.res
c:\users\rohitmuneshwar\documents\ibm\programming\win32sdkcomdotnetwinrt\dll_client\declspec_implicit\declimplicitclient\declimplicitclient\debug\declimpl.22e682c8.tlog\cl.command.1.tlog
c:\users\rohitmuneshwar\documents\ibm\programming\win32sdkcomdotnetwinrt\dll_client\declspec_implicit\declimplicitclient\declimplicitclient\debug\declimpl.22e682c8.tlog\cl.read.1.tlog
c:\users\rohitmuneshwar\documents\ibm\programming\win32sdkcomdotnetwinrt\dll_client\declspec_implicit\declimplicitclient\declimplicitclient\debug\declimpl.22e682c8.tlog\cl.write.1.tlog
c:\users\rohitmuneshwar\documents\ibm\programming\win32sdkcomdotnetwinrt\dll_client\declspec_implicit\declimplicitclient\declimplicitclient\debug\declimpl.22e682c8.tlog\link.command.1.tlog
c:\users\rohitmuneshwar\documents\ibm\programming\win32sdkcomdotnetwinrt\dll_client\declspec_implicit\declimplicitclient\declimplicitclient\debug\declimpl.22e682c8.tlog\link.read.1.tlog
c:\users\rohitmuneshwar\documents\ibm\programming\win32sdkcomdotnetwinrt\dll_client\declspec_implicit\declimplicitclient\declimplicitclient\debug\declimpl.22e682c8.tlog\link.write.1.tlog
c:\users\rohitmuneshwar\documents\ibm\programming\win32sdkcomdotnetwinrt\dll_client\declspec_implicit\declimplicitclient\declimplicitclient\debug\declimpl.22e682c8.tlog\rc.command.1.tlog
c:\users\rohitmuneshwar\documents\ibm\programming\win32sdkcomdotnetwinrt\dll_client\declspec_implicit\declimplicitclient\declimplicitclient\debug\declimpl.22e682c8.tlog\rc.read.1.tlog
c:\users\rohitmuneshwar\documents\ibm\programming\win32sdkcomdotnetwinrt\dll_client\declspec_implicit\declimplicitclient\declimplicitclient\debug\declimpl.22e682c8.tlog\rc.write.1.tlog
