^C:\PROGRAMMING\WIN32SDKCOMDOTNETWINRT\COM\AUTOMATION\CLIENTS\IDISPATCHAUTOMATIONCLIENT\IDISPATCHAUTOMATIONCLIENT\IDISPATCHAUTOMATIONCLIENT.CPP
C:\PROGRAMMING\WIN32SDKCOMDOTNETWINRT\COM\AUTOMATION\CLIENTS\IDISPATCHAUTOMATIONCLIENT\IDISPATCHAUTOMATIONCLIENT\X64\DEBUG\VC142.PDB
C:\PROGRAMMING\WIN32SDKCOMDOTNETWINRT\COM\AUTOMATION\CLIENTS\IDISPATCHAUTOMATIONCLIENT\IDISPATCHAUTOMATIONCLIENT\X64\DEBUG\VC142.IDB
C:\PROGRAMMING\WIN32SDKCOMDOTNETWINRT\COM\AUTOMATION\CLIENTS\IDISPATCHAUTOMATIONCLIENT\IDISPATCHAUTOMATIONCLIENT\X64\DEBUG\IDISPATCHAUTOMATIONCLIENT.OBJ
