^C:\PROGRAMMING\WIN32SDKCOMDOTNETWINRT\COM\AUTOMATION\CLIENTS\IDISPATCHAUTOMATIONCLIENT\IDISPATCHAUTOMATIONCLIENT\X64\DEBUG\IDISPATCHAUTOMATIONCLIENT.OBJ
C:\PROGRAMMING\WIN32SDKCOMDOTNETWINRT\COM\AUTOMATION\CLIENTS\IDISPATCHAUTOMATIONCLIENT\X64\DEBUG\IDISPATCHAUTOMATIONCLIENT.EXE
C:\PROGRAMMING\WIN32SDKCOMDOTNETWINRT\COM\AUTOMATION\CLIENTS\IDISPATCHAUTOMATIONCLIENT\X64\DEBUG\IDISPATCHAUTOMATIONCLIENT.ILK
C:\PROGRAMMING\WIN32SDKCOMDOTNETWINRT\COM\AUTOMATION\CLIENTS\IDISPATCHAUTOMATIONCLIENT\X64\DEBUG\IDISPATCHAUTOMATIONCLIENT.PDB
