^C:\PROGRAMMING\WIN32SDKCOMDOTNETWINRT\WIN32\IDE\HELLOWORLD\HELLOWORLD\DEBUG\HELLOWORLD.OBJ|C:\PROGRAMMING\WIN32SDKCOMDOTNETWINRT\WIN32\IDE\HELLOWORLD\HELLOWORLD\DEBUG\SPLASHSCREEN.RES
C:\PROGRAMMING\WIN32SDKCOMDOTNETWINRT\WIN32\IDE\HELLOWORLD\DEBUG\HELLOWORLD.EXE
C:\PROGRAMMING\WIN32SDKCOMDOTNETWINRT\WIN32\IDE\HELLOWORLD\DEBUG\HELLOWORLD.ILK
C:\PROGRAMMING\WIN32SDKCOMDOTNETWINRT\WIN32\IDE\HELLOWORLD\DEBUG\HELLOWORLD.PDB
