﻿  AutomationServer.cpp
C:\programming\win32sdkcomdotnetwinrt\COM\Automation\AutomationServer\AutomationServer\AutomationServer.cpp(381,8): warning C4101:  'str': unreferenced local variable
     Creating library C:\programming\win32sdkcomdotnetwinrt\COM\Automation\AutomationServer\x64\Debug\AutomationServer.lib and object C:\programming\win32sdkcomdotnetwinrt\COM\Automation\AutomationServer\x64\Debug\AutomationServer.exp
AutomationServer.exp : warning LNK4070: /OUT:AggregationInnerComponentWithRegFile.dll directive in .EXP differs from output filename 'C:\programming\win32sdkcomdotnetwinrt\COM\Automation\AutomationServer\x64\Debug\AutomationServer.dll'; ignoring directive
  AutomationServer.vcxproj -> C:\programming\win32sdkcomdotnetwinrt\COM\Automation\AutomationServer\x64\Debug\AutomationServer.dll
