^C:\USERS\ROHITMUNESHWAR\DOCUMENTS\IBM\PROGRAMMING\WIN32SDKCOMDOTNETWINRT\DLL_CLIENT\DECLSPEC_EXPLICIT\DECLEXPLICITCLIENT\DECLEXPLICITCLIENT\RESOURCES.RC
C:\USERS\ROHITMUNESHWAR\DOCUMENTS\IBM\PROGRAMMING\WIN32SDKCOMDOTNETWINRT\DLL_CLIENT\DECLSPEC_EXPLICIT\DECLEXPLICITCLIENT\DECLEXPLICITCLIENT\RESOURCES.H
C:\USERS\ROHITMUNESHWAR\DOCUMENTS\IBM\PROGRAMMING\WIN32SDKCOMDOTNETWINRT\DLL_CLIENT\DECLSPEC_EXPLICIT\DECLEXPLICITCLIENT\DECLEXPLICITCLIENT\RESOURCES\MYICON.ICO
C:\USERS\ROHITMUNESHWAR\DOCUMENTS\IBM\PROGRAMMING\WIN32SDKCOMDOTNETWINRT\DLL_CLIENT\DECLSPEC_EXPLICIT\DECLEXPLICITCLIENT\DECLEXPLICITCLIENT\RESOURCES\MYICONSM.ICO
C:\USERS\ROHITMUNESHWAR\DOCUMENTS\IBM\PROGRAMMING\WIN32SDKCOMDOTNETWINRT\DLL_CLIENT\DECLSPEC_EXPLICIT\DECLEXPLICITCLIENT\DECLEXPLICITCLIENT\RESOURCES\MYCURSOR.CUR
C:\USERS\ROHITMUNESHWAR\DOCUMENTS\IBM\PROGRAMMING\WIN32SDKCOMDOTNETWINRT\DLL_CLIENT\DECLSPEC_EXPLICIT\DECLEXPLICITCLIENT\DECLEXPLICITCLIENT\RESOURCES\RAY.BMP
