^C:\USERS\ROHITMUNESHWAR\DOCUMENTS\IBM\PROGRAMMING\WIN32SDKCOMDOTNETWINRT\DLL_CLIENT\DECLSPEC_IMPLICIT\DECLIMPLICITCLIENT\DECLIMPLICITCLIENT\DECLIMPLICITCLIENT.CPP
C:\USERS\ROHITMUNESHWAR\DOCUMENTS\IBM\PROGRAMMING\WIN32SDKCOMDOTNETWINRT\DLL_CLIENT\DECLSPEC_IMPLICIT\DECLIMPLICITCLIENT\DECLIMPLICITCLIENT\DEBUG\VC142.PDB
C:\USERS\ROHITMUNESHWAR\DOCUMENTS\IBM\PROGRAMMING\WIN32SDKCOMDOTNETWINRT\DLL_CLIENT\DECLSPEC_IMPLICIT\DECLIMPLICITCLIENT\DECLIMPLICITCLIENT\DEBUG\VC142.IDB
C:\USERS\ROHITMUNESHWAR\DOCUMENTS\IBM\PROGRAMMING\WIN32SDKCOMDOTNETWINRT\DLL_CLIENT\DECLSPEC_IMPLICIT\DECLIMPLICITCLIENT\DECLIMPLICITCLIENT\DEBUG\DECLIMPLICITCLIENT.OBJ
