^C:\USERS\ROHITMUNESHWAR\DOCUMENTS\IBM\PROGRAMMING\WIN32SDKCOMDOTNETWINRT\DLL\DECLSPEC\MYMATHDL\MYMATHDL\MYMATHDL.CPP
C:\USERS\ROHITMUNESHWAR\DOCUMENTS\IBM\PROGRAMMING\WIN32SDKCOMDOTNETWINRT\DLL\DECLSPEC\MYMATHDL\MYMATHDL\DEBUG\VC142.PDB
C:\USERS\ROHITMUNESHWAR\DOCUMENTS\IBM\PROGRAMMING\WIN32SDKCOMDOTNETWINRT\DLL\DECLSPEC\MYMATHDL\MYMATHDL\DEBUG\VC142.IDB
C:\USERS\ROHITMUNESHWAR\DOCUMENTS\IBM\PROGRAMMING\WIN32SDKCOMDOTNETWINRT\DLL\DECLSPEC\MYMATHDL\MYMATHDL\DEBUG\MYMATHDL.OBJ
