^C:\Users\RohitMuneshwar\Documents\IBM\programming\win32sdkcomdotnetwinrt\dll\declspec\MyMathDL\MyMathDL\MyMathDL.vcxproj
C:\Users\RohitMuneshwar\Documents\IBM\programming\win32sdkcomdotnetwinrt\dll\declspec\MyMathDL\Debug\MYMATHDL.lib
C:\Users\RohitMuneshwar\Documents\IBM\programming\win32sdkcomdotnetwinrt\dll\declspec\MyMathDL\Debug\MYMATHDL.exp
