﻿  AutomationProxyStub.c
  AutomationProxyStubDllData.c
  AutomationProxyStubGuids.c
  Generating Code...
     Creating library C:\programming\win32sdkcomdotnetwinrt\COM\Automation\ProxyStub\ProxyStubDll\x64\Debug\ProxyStubDll.lib and object C:\programming\win32sdkcomdotnetwinrt\COM\Automation\ProxyStub\ProxyStubDll\x64\Debug\ProxyStubDll.exp
  ProxyStubDll.vcxproj -> C:\programming\win32sdkcomdotnetwinrt\COM\Automation\ProxyStub\ProxyStubDll\x64\Debug\ProxyStubDll.dll
