c:\programming\win32sdkcomdotnetwinrt\com\containment\containmentinnercomponentwithregfile\containmentinnercomponentwithregfile\x64\debug\vc142.pdb
c:\programming\win32sdkcomdotnetwinrt\com\containment\containmentinnercomponentwithregfile\containmentinnercomponentwithregfile\x64\debug\vc142.idb
c:\programming\win32sdkcomdotnetwinrt\com\containment\containmentinnercomponentwithregfile\containmentinnercomponentwithregfile\x64\debug\containmentinnercomponentwithregfile.obj
c:\programming\win32sdkcomdotnetwinrt\com\containment\containmentinnercomponentwithregfile\x64\debug\containmentinnercomponentwithregfile.lib
c:\programming\win32sdkcomdotnetwinrt\com\containment\containmentinnercomponentwithregfile\x64\debug\containmentinnercomponentwithregfile.exp
c:\programming\win32sdkcomdotnetwinrt\com\containment\containmentinnercomponentwithregfile\x64\debug\containmentinnercomponentwithregfile.ilk
c:\programming\win32sdkcomdotnetwinrt\com\containment\containmentinnercomponentwithregfile\x64\debug\containmentinnercomponentwithregfile.dll
c:\programming\win32sdkcomdotnetwinrt\com\containment\containmentinnercomponentwithregfile\x64\debug\containmentinnercomponentwithregfile.pdb
c:\programming\win32sdkcomdotnetwinrt\com\containment\containmentinnercomponentwithregfile\containmentinnercomponentwithregfile\x64\debug\containm.b826e742.tlog\cl.command.1.tlog
c:\programming\win32sdkcomdotnetwinrt\com\containment\containmentinnercomponentwithregfile\containmentinnercomponentwithregfile\x64\debug\containm.b826e742.tlog\cl.read.1.tlog
c:\programming\win32sdkcomdotnetwinrt\com\containment\containmentinnercomponentwithregfile\containmentinnercomponentwithregfile\x64\debug\containm.b826e742.tlog\cl.write.1.tlog
c:\programming\win32sdkcomdotnetwinrt\com\containment\containmentinnercomponentwithregfile\containmentinnercomponentwithregfile\x64\debug\containm.b826e742.tlog\containmentinnercomponentwithregfile.write.1u.tlog
c:\programming\win32sdkcomdotnetwinrt\com\containment\containmentinnercomponentwithregfile\containmentinnercomponentwithregfile\x64\debug\containm.b826e742.tlog\link.command.1.tlog
c:\programming\win32sdkcomdotnetwinrt\com\containment\containmentinnercomponentwithregfile\containmentinnercomponentwithregfile\x64\debug\containm.b826e742.tlog\link.read.1.tlog
c:\programming\win32sdkcomdotnetwinrt\com\containment\containmentinnercomponentwithregfile\containmentinnercomponentwithregfile\x64\debug\containm.b826e742.tlog\link.write.1.tlog
