^C:\PROGRAMMING\WIN32SDKCOMDOTNETWINRT\COM\CLASSFACTORY\SERVER\CLIENTCLASSFACTORYDLLSERVERWITHREGFILE\CLIENTCLASSFACTORYDLLSERVERWITHREGFILE\X64\DEBUG\CLIENTOFCLASSFACTORYDLLSERVERWITHREGFILE.OBJ
C:\PROGRAMMING\WIN32SDKCOMDOTNETWINRT\COM\CLASSFACTORY\SERVER\CLIENTCLASSFACTORYDLLSERVERWITHREGFILE\X64\DEBUG\CLIENTCLASSFACTORYDLLSERVERWITHREGFILE.ILK
C:\PROGRAMMING\WIN32SDKCOMDOTNETWINRT\COM\CLASSFACTORY\SERVER\CLIENTCLASSFACTORYDLLSERVERWITHREGFILE\X64\DEBUG\CLIENTCLASSFACTORYDLLSERVERWITHREGFILE.EXE
C:\PROGRAMMING\WIN32SDKCOMDOTNETWINRT\COM\CLASSFACTORY\SERVER\CLIENTCLASSFACTORYDLLSERVERWITHREGFILE\X64\DEBUG\CLIENTCLASSFACTORYDLLSERVERWITHREGFILE.PDB
