^C:\USERS\ROHITMUNESHWAR\DOCUMENTS\IBM\PROGRAMMING\WIN32SDKCOMDOTNETWINRT\WIN32\IDE\SPLASHSCREEN\PROJECT1\SPLASHSCREEN.RC
C:\USERS\ROHITMUNESHWAR\DOCUMENTS\IBM\PROGRAMMING\WIN32SDKCOMDOTNETWINRT\WIN32\IDE\SPLASHSCREEN\PROJECT1\RESOURCE.H
C:\USERS\ROHITMUNESHWAR\DOCUMENTS\IBM\PROGRAMMING\WIN32SDKCOMDOTNETWINRT\WIN32\IDE\SPLASHSCREEN\PROJECT1\RES\MYICON.ICO
C:\USERS\ROHITMUNESHWAR\DOCUMENTS\IBM\PROGRAMMING\WIN32SDKCOMDOTNETWINRT\WIN32\IDE\SPLASHSCREEN\PROJECT1\RES\MYICONSM.ICO
C:\USERS\ROHITMUNESHWAR\DOCUMENTS\IBM\PROGRAMMING\WIN32SDKCOMDOTNETWINRT\WIN32\IDE\SPLASHSCREEN\PROJECT1\RES\MYCURSOR.CUR
C:\USERS\ROHITMUNESHWAR\DOCUMENTS\IBM\PROGRAMMING\WIN32SDKCOMDOTNETWINRT\WIN32\IDE\SPLASHSCREEN\PROJECT1\RES\RAY.BMP
^C:\PROGRAMMING\WIN32SDKCOMDOTNETWINRT\WIN32\IDE\SPLASHSCREEN\PROJECT1\SPLASHSCREEN.RC
C:\PROGRAMMING\WIN32SDKCOMDOTNETWINRT\WIN32\IDE\SPLASHSCREEN\PROJECT1\RESOURCE.H
C:\PROGRAMMING\WIN32SDKCOMDOTNETWINRT\WIN32\IDE\SPLASHSCREEN\PROJECT1\RES\MYICON.ICO
C:\PROGRAMMING\WIN32SDKCOMDOTNETWINRT\WIN32\IDE\SPLASHSCREEN\PROJECT1\RES\MYICONSM.ICO
C:\PROGRAMMING\WIN32SDKCOMDOTNETWINRT\WIN32\IDE\SPLASHSCREEN\PROJECT1\RES\MYCURSOR.CUR
C:\PROGRAMMING\WIN32SDKCOMDOTNETWINRT\WIN32\IDE\SPLASHSCREEN\PROJECT1\RES\RAY.BMP
