^C:\PROGRAMMING\WIN32SDKCOMDOTNETWINRT\COM\CLASSFACTORY\SERVER\CLIENTCLASSFACTORYDLLSERVERWITHREGFILE\CLIENTCLASSFACTORYDLLSERVERWITHREGFILE\CLIENTOFCLASSFACTORYDLLSERVERWITHREGFILE.CPP
C:\PROGRAMMING\WIN32SDKCOMDOTNETWINRT\COM\CLASSFACTORY\SERVER\CLIENTCLASSFACTORYDLLSERVERWITHREGFILE\CLIENTCLASSFACTORYDLLSERVERWITHREGFILE\DEBUG\VC142.PDB
C:\PROGRAMMING\WIN32SDKCOMDOTNETWINRT\COM\CLASSFACTORY\SERVER\CLIENTCLASSFACTORYDLLSERVERWITHREGFILE\CLIENTCLASSFACTORYDLLSERVERWITHREGFILE\DEBUG\VC142.IDB
C:\PROGRAMMING\WIN32SDKCOMDOTNETWINRT\COM\CLASSFACTORY\SERVER\CLIENTCLASSFACTORYDLLSERVERWITHREGFILE\CLIENTCLASSFACTORYDLLSERVERWITHREGFILE\DEBUG\CLIENTOFCLASSFACTORYDLLSERVERWITHREGFILE.OBJ
